4 712:1 7971:1 8706:1 13004:1 13982:1 14045:1
4 377:1 1253:1 2056:1 3899:1 3955:1 5097:1 6330:1 7860:1 10240:1 10891:1 13982:1
2 1852:1 4277:1 5359:1 6543:1 7618:1 7801:1 8562:1 9248:1 9347:1 10284:1 10363:1 10410:1 10743:1 11619:1 12067:2 12576:1 13967:1 14269:1 14429:1 14661:1 15459:3
2 156:1 569:1 3435:1 5097:1 5365:2 7983:1 8233:1 9333:1 10266:1 11484:1 14029:1
4 1006:1 1097:1 2932:1 3420:1 8048:1 8444:1 8848:1 9179:1 10131:1 12777:1
1 1229:1 1597:1 1930:1 2686:1 3094:1 4205:1 5814:1 6385:1 6487:1 6513:4 7864:1 8834:1 13601:1 13734:1 13877:1 14038:2
2 21:1 1257:1 1316:1 3899:1 4210:1 4507:1 8865:1 9180:1 9903:1
4 621:1 1097:1 3245:1 5319:1 6522:1 6548:1 6877:2 7532:1 7561:1 7819:1 7985:1 8698:1 10813:1 11839:1 12231:1 13961:1 14691:1
4 536:1 701:1 1097:1 1117:1 1253:1 1838:1 1874:2 3524:1 3961:1 5097:1 5283:1 6443:1 6567:1 9226:1 9762:1 10144:1 10451:1 11043:1 14952:1 15467:1
4 983:1 3375:1 3633:2 4409:1 5097:1 7900:1 8408:1 9326:1 10409:1 12514:1 12996:1 15765:1
2 5:1 564:1 606:1 635:1 983:1 1097:1 1463:1 2670:1 2978:1 4445:1 4823:1 5079:2 5097:1 5520:1 6360:1 6763:1 6903:1 7093:1 7147:1 7867:1 8752:1 9622:1 10088:1 10542:1 10747:2 10851:1 11917:1 12492:1 12996:1 13032:1 13182:1 13808:1 14934:1 15689:1 15820:1 16367:1
1 7900:1 10767:1
1 56:1 797:1 983:1 1117:1 1243:1 1253:1 1632:1 1937:1 2440:1 2899:1 3239:4 3335:1 3545:1 3675:1 3981:1 4280:1 4829:2 5145:1 5284:1 5442:1 5731:1 6175:1 6247:1 6331:1 6739:1 7124:1 8188:1 9657:1 9757:1 9928:1 9986:8 10046:1 10106:2 10471:1 10759:1 10989:1 12209:1 12226:2 12707:3 13398:1 14259:1 14592:1 14685:1 15418:1 15702:1 16061:1 16334:1
1 1268:1 4908:1 5783:2 6400:2 6484:1 7054:2 8114:1 9462:1 12214:1
4 4998:1 7900:1 7971:1 11813:1 12044:1 13966:1
4 12:1 144:1 1117:1 1327:1 1343:1 2723:1 4114:1 5097:1 5756:1 7566:1 7942:1 9301:1 10718:1 13982:2 15241:1
4 131:1 3639:1 4657:1 7883:1 8700:1 9161:1 13982:2 16064:1
4 156:1 8802:1 8805:1 9058:1 9888:1 15058:1 15869:1
4 712:1 2913:1 3265:1 4451:1 4998:1 5097:1 9367:1 9937:1 10318:1 10891:1 11388:1 14045:1 14669:1 15126:1 15488:1
4 635:1 946:1 1253:1 1317:1 2979:1 3182:1 3859:1 5279:3 5382:1 7124:1 7458:1 7900:1 11150:1 12049:1 12173:1 12823:1 12855:1 13139:1 13271:1 13982:1 15019:1 15221:1
1 859:1 897:1 968:1 1097:1 1216:1 1323:1 1551:1 1668:1 2386:1 2944:1 2977:1 2980:1 3159:1 3335:1 3337:1 3593:1 3771:4 4589:1 4685:1 4769:1 5279:2 5367:1 5401:1 5852:2 6050:1 6084:2 6179:1 6484:1 6813:1 6825:1 6873:1 7300:1 7749:1 7950:1 8602:1 8692:1 8848:1 9582:1 9592:1 9779:1 9932:1 10011:1 10303:1 10481:1 10513:1 10651:1 10724:2 11142:2 11566:1 11692:1 11781:1 12112:1 12489:1 12600:2 13247:1 13274:1 13369:1 13946:1 13982:1 14456:1 14827:1 15349:1 15708:1 15709:1 15887:1 15937:2 16064:2
2 19:1 205:1 397:1 695:1 797:2 958:1 1097:1 1117:6 1216:1 2414:1 2692:2 2764:2 2976:1 3639:1 3732:1 3913:1 4096:1 4464:5 4535:1 4682:1 4805:1 4953:1 5853:1 6240:1 6825:1 7983:3 8195:1 8326:1 9232:1 9239:1 9410:1 9529:1 9555:1 9883:1 10266:1 10295:1 10410:1 10598:1 10633:1 10790:2 11214:1 11569:1 12035:1 12585:1 12707:1 13982:2 15401:1 16016:1 16059:1 16189:1 16190:1
1 487:1 534:1 535:1 1117:1 1243:1 1567:1 1870:1 2472:1 4584:1 4829:1 5369:1 6646:1 7200:1 7620:1 7789:1 9376:1 13547:1 14776:1 16249:1 16292:1
1 3760:1 4579:1 9054:1 10471:1 12585:1 14131:1 15676:1
2 1316:2 3191:1 3678:1 3706:1 7867:1 9741:1 11356:1 11429:1 11692:1 13090:1
1 1805:1 2546:1 4165:1 4811:1 6371:1 7200:1 8229:1 9232:1 9338:1 9816:1 13710:1 13782:1 13935:1 13982:1 14805:1
4 621:1 1097:1 3245:1 5319:1 6522:1 6548:1 6877:2 7532:1 7561:1 7819:1 7985:1 8698:1 10813:1 11839:1 12231:1 13961:1 14691:1
4 342:1 579:1 635:1 1808:1 4811:1 4968:1 5295:1 7309:1 7864:1 8274:1 8535:1 8612:1 9281:1 9996:1 12586:1 12600:1 13515:1 13535:1 16073:1 16149:1
1 125:2 198:1 374:1 453:1 477:1 635:1 695:1 797:1 961:1 1097:1 1115:1 1188:1 1534:1 2317:1 2428:1 2652:1 3265:1 3280:1 4086:1 4226:1 4409:1 4575:1 4716:1 4717:1 4960:1 5520:1 6484:1 6494:1 7483:1 8382:1 8583:1 9135:1 9169:1 9426:1 9589:2 10298:1 10580:1 10689:1 10932:1 10993:1 11123:1 11534:1 11901:1 12348:1 12608:1 12667:1 13431:1 13989:1 14369:1 14563:2 15369:1
1 750:1 968:1 1097:1 1139:1 2131:1 2402:1 2985:1 3162:1 3927:1 4055:1 4626:1 4876:1 5423:1 5960:1 6698:1 6706:1 7523:1 7640:1 7727:1 8305:1 8326:2 8478:2 8638:1 8915:1 8941:1 9321:1 9522:1 9888:1 10190:1 10345:1 11648:1 11688:1 11924:3 12241:1 12242:1 12279:1 12349:1 12424:1 12996:1 13186:2 13324:1 13752:1 13780:1 14073:1 14235:1 14669:1 14711:1 15420:1 15490:1 15863:1 16030:1 16129:2 16362:3
1 22:1 78:1 2440:1 4251:1 5097:1 6014:1 6342:1 9106:1 13588:1 14690:1 14698:1
4 168:1 593:1 635:2 1139:2 1534:1 3069:1 3899:1 4096:1 4365:1 4484:1 4602:1 5097:1 5384:2 6638:1 8134:1 8444:1 9169:1 9341:1 11264:1 11690:1 12019:1 12103:1 12584:1 13068:1 13292:1 13603:1 13714:1 13982:2 14139:1 14429:3 14553:1
4 5010:1 9329:1 13982:1
1 41:1 224:1 385:1 569:1 700:1 1117:2 1253:1 2229:1 2440:2 2576:1 2848:1 3022:1 3083:2 3545:1 3861:1 5365:3 5445:1 7054:1 7468:1 7976:1 7983:2 8196:1 8463:1 9296:1 10212:1 10266:1 10310:1 10359:1 10387:1 11313:1 11367:1 11534:1 12294:2 12585:1 12728:1 13042:1 13281:1 14434:1 14501:1 14552:1 14574:1 14900:1 16049:1 16306:1
4 259:2 1097:2 1117:2 1188:1 1409:1 1838:1 2613:1 3980:1 5097:1 5285:1 5319:1 5365:3 7393:1 7978:1 8085:1 8105:1 8229:1 8408:1 8788:1 9506:1 9884:1 10004:1 10223:1 10416:1 10471:1 11068:1 11221:1 11983:1 12503:1 12773:1 12956:1 13982:1 14299:2 14876:1 15076:1 15178:1
2 116:1 427:1 1395:1 4526:1 6089:1 7646:2 11615:1 12166:1 13958:1 14424:1 14467:1 14877:1 15410:1 15606:1 15858:2 15964:1 16083:1
4 968:1 2571:1 5279:1 6862:1 9106:1 11796:1 13023:1 14587:1
1 431:1 13959:1
2 183:1 573:1 675:1 1333:1 1494:1 2005:2 2305:1 4611:2 5191:1 6097:1 6394:1 6551:1 6882:1 7028:1 7823:1 7971:1 9119:2 9511:1 9870:1 12049:1 12595:1 13966:1 13982:1 15325:1 15693:1
1 2532:1 2692:1 4336:1 4866:1 5992:1 5999:1 6750:1 10556:1 11684:1
2 569:1 797:2 1117:1 1936:1 5310:1 6682:1 9418:1 9715:1 10633:1 10983:1 12035:1 12137:1 15827:1
4 144:1 503:1 1117:1 1971:1 2085:1 2571:1 3595:1 4409:1 6671:1 7071:1 7206:1 7732:1 7901:1 11283:1 12156:1 13004:1 13013:3 13142:1 13812:1 13982:1 14555:1 15106:1
4 209:1 385:1 856:1 1117:1 2237:1 2441:1 3327:1 5626:1 6206:1 6694:1 7021:1 7567:1 8406:1 11918:1 13243:2 14303:1 15154:1 15374:1
4 1117:5 1253:3 1409:1 1541:1 3181:1 4545:1 4651:1 4784:1 5097:1 5123:1 5801:1 5850:1 6138:1 6455:1 8511:1 8515:1 8599:1 9018:1 9214:1 10790:1 13004:1 13505:1 13825:1 15028:1 15467:1 15826:1 16079:1 16083:1
2 464:1 508:1 1117:1 1707:1 2880:1 3156:1 3792:1 4164:1 5649:1 6151:1 6179:1 7086:1 7101:1 7940:1 8456:1 11049:1 11313:1 13184:1 13508:1 13624:1 13818:1 13935:1 14094:1
4 241:1 431:1 536:1 2519:1 3916:1 6405:1 6520:1 7729:1 10674:1 11234:1 13042:1 14401:2 15540:1 16351:2
4 476:1 856:1 1032:1 1213:1 2197:1 2692:2 3217:1 3358:1 3543:1 3899:1 4548:1 5135:1 5266:1 6354:1 6723:1 7266:1 8358:1 10363:1 10471:1 11969:1 12049:1 13802:1 13982:1 14354:1 14642:1 14737:1 15076:1 15140:1 16333:1
4 7900:1
1 209:1 224:1 361:1 534:1 635:1 797:1 1794:1 2010:1 2670:1 2945:1 3022:1 3072:1 3287:1 4981:1 5097:1 5186:1 5714:1 6401:1 7715:1 7791:1 8316:1 8386:1 9485:1 9676:1 10074:1 10748:1 13355:1 13982:1 14745:1 15060:1 16302:1
2 2382:1 3045:1 3572:1 4685:1 5079:1 6997:1 13381:1 14061:2 15540:1 15869:1 15980:1
1 318:2 422:1 452:1 483:1 527:4 797:1 1253:1 1482:1 1608:1 2105:1 2322:1 2460:1 2692:3 3150:1 3253:1 3322:1 3388:1 3423:1 4018:4 4154:1 4714:2 5007:3 5307:1 5312:1 5535:1 5727:2 6050:1 7300:1 7906:1 8238:1 8577:1 8746:3 8899:1 9106:1 9234:1 10034:1 10233:1 10363:1 10409:1 10545:1 10633:2 11512:1 11691:1 11851:1 12168:1 12385:1 12527:1 14428:1 14518:1 14949:2 15362:1
1 194:1 1583:1 1801:1 4504:1 7273:1 10363:1 11000:1 11362:1 13930:1 15962:1
1 476:1 1117:1 1308:1 6289:1 6523:1
4 1117:1 1253:1 3521:1 3989:1 4208:1 5097:1 6694:1 9106:1 10718:1 12173:1 12319:2 13583:1 15869:1
4 1253:1 1327:1 2848:1 2923:1 2933:1 5010:2 5097:1 9296:1 9827:1 9874:1 13958:1 13982:3 14555:1 14642:1 15127:1
1 859:1 897:1 968:1 1097:1 1216:1 1323:1 1551:1 1668:1 2386:1 2944:1 2977:1 2980:1 3159:1 3335:1 3337:1 3593:1 3771:4 4589:1 4685:1 4769:1 5279:2 5367:1 5401:1 5852:2 6050:1 6084:2 6179:1 6484:1 6813:1 6825:1 6873:1 7300:1 7749:1 7950:1 8602:1 8692:1 8848:1 9582:1 9592:1 9779:1 9932:1 10011:1 10303:1 10481:1 10513:1 10651:1 10724:2 11142:2 11566:1 11692:1 11781:1 12112:1 12489:1 12600:2 13247:1 13274:1 13369:1 13946:1 13982:1 14456:1 14827:1 15349:1 15708:1 15709:1 15887:1 15937:2 16064:2
4 1709:1 3241:1 4098:1 7334:1 9162:1 9699:1 9767:1 10494:1 12966:1 15478:1
4 7900:1 13982:1
4 1117:1 1388:1 1565:1 1805:1 1874:1 3088:1 3121:1 3265:1 3307:1 5863:1 6058:1 6723:1 7038:1 7620:1 7687:3 8636:1 9338:1 9515:1 9996:1 10011:1 11915:1 14585:1 14637:1 15368:1 15780:1 16012:1
4 5097:1 9329:1
2 387:2 1097:1 5668:1 6449:1 7091:1 7917:1 8698:1 9096:1 9180:1 10059:1 12375:1 12392:1 12802:1
2 599:1 2323:1 2492:1 3423:1 4728:1 6641:1 6705:1 6875:1 8841:2 13982:1
4 758:1 2150:1 2457:1 4274:1 5306:1 6915:2 6933:1 7602:1 7646:1 8088:1 8161:1 9259:1 9447:1 10222:1 11674:1 11746:1 12034:1 12253:1 12653:1 12664:1 12844:1 13036:1 13307:1 13961:2 14104:1 14751:1 15485:1 15858:1
1 1625:1 8700:1 10261:1
1 109:1 1081:1 1253:1 2036:1 2513:1 4738:1 5520:1 5852:1 6651:1 7413:1 8461:1 9797:1 11221:1 14250:1 14705:1 14755:1 14992:1
4 808:1 1122:1 1847:1 3298:3 5097:1 5402:1 10471:1 10873:1 10911:1 12903:1 13982:3 14525:1
4 156:1 391:1 797:1 1762:1 4175:1 4999:1 5162:1 5894:1 6058:3 6939:1 7470:1 7505:1 8698:1 9139:1 10363:2 10555:1 11120:1 12186:1 15058:1 16122:1
2 893:1 1117:3 1673:1 3968:1 4876:1 5010:2 5094:1 5577:1 6603:1 7150:1 8057:1 9827:1 9874:1 10016:1 10821:1 11218:1 13004:1 16033:1
2 3975:1 4427:1 5097:1 10935:1 13982:1
4 4238:1 4990:1 7472:1 8426:1 10009:1
4 635:1 1117:1 1316:1 1327:1 2197:1 2440:2 3050:1 3159:1 3904:1 3968:1 4160:1 4679:1 5163:1 5850:1 5933:2 6484:3 7766:1 8357:1 9247:1 9866:1 10175:1 10363:1 11821:1 11837:2 12059:1 12173:2 12191:1 13004:1 13131:1 13982:2 13995:2 14037:1 14632:1 14918:1 15362:1 15695:2
1 209:2 230:1 331:1 797:1 875:1 1031:1 1057:1 1805:1 2273:1 2570:1 2995:1 3259:1 3536:1 3707:1 3746:1 3776:1 3916:1 3950:1 4021:1 4143:1 4182:1 4192:1 4208:1 4512:1 4606:1 4826:1 5070:1 5102:1 6058:2 6351:1 6738:1 6873:1 7048:1 7535:1 7620:1 7648:1 7841:1 7859:1 7938:1 8233:3 8581:1 9227:1 9338:1 9642:1 10332:1 10363:1 10469:1 10471:1 10536:1 10699:1 10790:1 11047:1 11313:1 12090:1 12191:3 13061:1 13281:1 13290:1 15159:1 15693:1 16098:1
4 695:2 1117:1 2176:1 2900:1 3045:1 3712:1 3887:1 5324:1 5415:1 5481:1 7344:1 7673:1 7864:2 8448:1 8582:1 9500:1 9592:1 9714:1 11120:1 11262:1 12173:1 12715:1 13746:1 13982:1 14061:1 14073:1 15058:1 15390:1
2 254:1 728:1 797:1 813:1 865:3 983:1 1097:2 1253:1 1740:1 1805:3 1812:1 1964:1 2362:1 2391:1 2734:1 2816:1 3008:1 3045:1 3239:3 3335:1 3599:3 3629:1 4314:1 4367:1 4837:1 4956:1 5282:1 5973:1 6894:1 6931:1 7200:1 7317:1 7659:1 7668:1 7775:1 7845:1 8002:1 8071:1 8122:3 8552:1 8786:2 9055:1 9326:1 9338:4 9663:1 10166:1 10175:1 10471:1 10576:1 10617:1 10959:1 11000:1 11276:1 12196:1 12585:1 12602:1 12829:1 12926:1 13319:1 14299:1 14436:1 14910:3 15299:1 15646:1 15667:1 16084:1 16268:1
2 1097:1 2043:1 2789:1 4392:1 4534:1 6164:1 6169:2 6468:1 7983:1 8233:1 8326:2 9199:1 9266:1 9456:1 9462:1 9922:1 9946:1 10300:1 10363:1 13697:1 13982:3 14095:1 14669:1 15058:1 15315:1 15858:4 15978:1
2 797:1 1253:1 1993:1 2860:1 3639:1 5097:1 5699:1 10406:1 13982:1
4 1383:1 5097:2 5929:1 7562:1 7898:1 8233:1 10790:1 11796:1 12063:2 12769:1 12865:1 13327:1 14456:1 15109:1 16031:1
4 2100:1 3639:1 5097:1 6440:1 7141:1 7900:1 8233:1 10175:1 10780:1 11902:1 15058:1 15603:1
4 108:1 983:1 1117:2 1168:1 1567:1 2148:1 2173:2 2362:1 2689:1 2723:1 3606:1 4075:1 4105:1 4579:1 7553:1 7779:1 7846:1 8195:1 8422:1 9094:1 9715:1 10161:1 10296:1 10790:1 11313:1 11523:1 11739:1 12585:2 12707:1 13101:1 14555:1 14661:1 15647:1 16084:1 16307:1
4 621:1 1097:1 3245:1 5319:1 6522:1 6548:1 6877:2 7532:1 7561:1 7819:1 7985:1 8698:1 10813:1 11839:1 12231:1 13961:1 14691:1
4 5097:1 13026:1 13982:1
1 104:1 288:1 612:1 835:1 1180:1 1228:1 1381:1 1651:1 1817:1 1895:1 2105:1 2149:2 2233:1 2445:5 2449:1 2775:2 2814:1 2958:1 3014:1 3193:1 3208:2 3566:1 3661:4 3959:1 3968:1 4175:1 4326:1 4497:1 4627:1 5104:1 5279:2 5296:2 5330:1 5499:1 5537:1 5594:1 6130:1 6311:1 6443:1 7053:1 7880:1 7955:1 8326:4 8336:1 8747:4 9154:1 9314:1 9338:1 9651:1 10000:1 10420:1 10625:1 10693:2 11234:1 11534:1 11619:1 11892:1 12953:1 12965:1 13006:1 13212:1 13321:1 13597:1 13962:1 14244:1 14562:1 14572:1 14665:2 15058:1 15081:1 15597:1 15646:1 15970:1 16122:1
4 108:1 797:1 1097:1 1117:1 1150:1 1173:1 1253:1 1360:1 1926:1 1958:1 2177:3 2445:1 2449:1 2522:1 2854:1 3159:1 3265:1 3335:1 3477:1 3518:1 3866:1 3947:1 4365:1 4591:1 4949:1 5037:2 5094:1 5097:1 5115:1 5123:2 5238:5 5359:3 5700:1 5798:1 5850:1 6005:1 6234:1 6702:1 7009:1 7228:1 7289:1 7590:1 7834:1 7971:1 8174:1 8272:1 8515:4 8629:1 8751:1 9303:1 9417:1 9606:1 10240:1 10362:1 10438:1 10471:2 10486:1 10499:1 10677:1 11036:2 11221:3 11367:1 11408:1 11457:1 11566:1 12050:1 12718:1 13957:1 13982:5 14162:1 14410:1 14594:1 16078:1 16211:1
4 198:1 458:1 1202:1 1604:1 2197:1 4213:1 5794:1 6593:1 6694:1 6934:1 7147:1 7406:1 7583:1 8805:1 9888:1 13210:1 14595:1 14613:1
4 194:1 204:1 797:1 983:1 1117:1 1253:1 1409:1 1829:1 3083:2 4504:1 5097:2 6090:1 6484:1 6613:1 7054:1 7277:1 7703:1 7860:1 8233:1 8349:1 9374:1 10356:1 10363:1 10471:2 11000:1 11638:1 12049:1 12547:1 12907:1 13559:1 13665:1 13982:2 14711:1 15298:2 15412:1 16064:1
2 435:1 797:1 987:1 1999:1 2473:1 2578:1 3416:1 3712:1 5245:1 5319:1 6619:1 7581:2 7893:1 10141:1 10471:1 11000:1 11891:1 13926:1 14061:1 14201:1 15756:1
4 144:2 232:1 268:1 695:1 816:1 983:1 1117:4 1139:1 1364:1 1378:1 2782:1 2848:1 2912:1 3322:2 3423:1 4319:1 5059:1 5279:1 6005:1 6484:1 7006:1 7026:1 7673:1 8169:2 8195:1 10175:1 10633:1 10851:1 11170:1 12210:1 13782:1 13802:1 14661:1 15058:1 16088:1 16345:1
1 188:1 642:1 1043:1 1488:1 1618:2 2239:1 2916:1 3409:1 3700:1 3899:1 4864:1 5639:1 6076:2 6400:1 7506:1 8004:1 8662:1 8905:1 10015:1 10708:1 11218:2 12475:1 12552:1 12928:1 12960:1 13875:1 14563:1 14926:1 15436:1 15520:1 15601:1 15745:1 15913:1 16067:1
1 102:1 204:1 258:1 342:1 1025:2 1187:1 1331:1 1426:1 1474:5 1738:7 1836:1 1981:1 2036:1 2105:2 2430:1 2445:1 2746:1 2913:1 3532:1 3599:1 3662:1 3684:1 3857:1 3992:2 4099:1 4133:1 4204:1 4245:2 4965:7 5279:1 5911:1 5999:1 6100:1 6425:1 6443:1 6837:1 6873:1 6983:1 8207:2 8255:2 8768:1 9130:1 9797:1 9915:1 10711:1 11035:1 11036:2 11182:1 11687:1 12720:1 12798:1 13055:1 13410:1 13967:1 14280:1 14410:1 15302:1 15368:1 15840:1 16197:1 16254:3
4 5097:1 7900:1 10011:1 15692:1
4 144:1 397:1 1097:1 1117:1 2848:1 3050:1 3792:1 4326:1 4680:1 5933:1 6192:1 6343:1 7213:1 7659:1 7687:1 7864:1 8667:1 9296:1 10165:1 10235:1 10936:1 11569:1 11902:1 12191:1 12471:1 12506:2 13476:1 13966:1 13982:1 14177:1 14303:2 14766:1 14880:1 15076:1 15386:1 15817:1 16100:1
2 797:1 1730:1 2670:1 5050:1 5644:1 7587:1 7971:1 7983:1 13958:1
2 387:2 1097:1 5668:1 6449:1 7091:1 7917:1 8698:1 9096:1 9180:1 10059:1 12375:1 12392:1 12802:1
4 1040:1 1132:2 4682:1 5097:1 5226:1 5279:1 7054:1 7566:1 8109:1 8958:1 9106:1 9312:1 10014:2 10191:1 10392:1 11845:1 12585:1 13049:1 13352:1 13775:1 13982:1 14881:1 15058:1 16078:1
4 202:1 541:1 946:2 3822:1 8894:1 13982:1 14641:1
1 1097:1 1117:1 1729:1 2089:1 2289:1 3182:1 4409:1 4956:2 5135:1 5747:1 6153:1 6400:1 6886:1 8304:1 8474:1 8763:1 9227:1 11125:1 12173:1 13946:2 13982:2 14538:1 15646:1
2 1139:1 2692:1 2896:1 5055:1 5156:1 5386:1 6743:1 7994:1 12170:1
4 144:1 202:1 534:2 912:1 1117:1 1243:1 2229:1 2692:1 3182:1 3977:1 5097:1 7930:1 8195:1 9696:1 10046:1 10190:1 11841:1 12173:1 13081:1 13782:1 13982:2 14711:1 14938:1 15361:1 15420:1 15686:1 16064:2
2 190:1 612:1 797:1 983:1 1059:1 1097:1 1117:2 1188:1 1253:1 1538:1 1731:1 1738:1 1855:1 2665:1 2848:1 3117:1 3948:1 5010:1 5097:1 5895:1 7701:1 7792:1 8233:1 9296:2 10363:1 10696:1 10883:1 10946:1 11080:1 11285:1 11313:1 11907:1 12527:1 13398:2 13750:1 13982:3 15058:2 15205:1 15364:3 15787:1 16055:1
4 495:1 983:1 1868:1 1936:1 4916:1 5097:1 6281:1 9225:1 12173:1 14859:1 15189:1 15817:1
4 15:1 290:1 2440:1 2723:1 3599:1 4251:1 4689:1 10551:1 11813:1 12585:1 13004:1 13909:1 13982:4 14632:1 15838:1
1 144:1 305:1 1503:1 2197:1 3904:1 4213:1 5286:1 6443:1 7065:1 8110:1 8233:1 12659:1 13215:1 13312:1 13982:1 15058:1
4 1117:1 4568:1 5097:1 7992:1 8233:2 12760:1 15058:1
4 478:1 1409:1 1801:1 1855:1 2289:1 2723:1 2875:1 3904:1 3913:1 4461:1 4568:1 5097:1 5850:1 8040:1 8233:1 11409:1 11484:1 13247:1 13921:1 14368:1 15058:1 15730:1 15910:1
4 204:1 385:1 695:1 1135:2 1253:1 1761:1 1829:1 2362:1 2373:1 2423:1 2440:2 2778:1 3049:1 3182:1 3931:1 3984:1 4697:1 4811:1 5010:1 5060:1 5097:1 5150:1 5755:1 6131:1 6874:1 6929:1 7205:2 7392:1 8273:1 8382:1 9301:1 9462:2 9941:1 9992:1 10040:1 10363:1 10551:1 10556:1 11942:1 12010:1 12173:2 12360:2 12367:1 12709:1 12965:1 13049:1 13074:1 13081:1 13157:2 13782:2 13982:3 14047:1 14601:1 14903:1 15031:1 15312:1 15464:1 15470:1 15856:2 15914:1
1 1117:4 2966:1 5313:1 6004:1 6766:1 6980:1 9149:1 10812:3 11441:1
1 1117:1 2866:1 5097:1 5740:1 10984:1 12735:1
4 72:1 144:1 453:1 553:1 569:1 635:1 797:1 942:1 1067:1 1097:1 1139:1 1227:1 1253:2 1838:1 1874:1 2133:1 2144:1 2531:1 2549:1 2555:1 2717:1 2889:1 2971:1 3159:1 3297:1 3423:2 3554:2 3561:1 3913:1 4210:1 4353:2 4365:1 4422:2 4467:1 5097:4 5123:1 5126:1 5339:1 5680:2 5732:2 5848:1 5932:1 6553:1 6613:1 6619:1 6734:1 6908:1 6909:1 7220:1 7537:1 7659:1 7900:1 7925:1 8555:1 8950:2 9106:2 9156:1 9170:1 9228:1 9308:1 9357:1 10410:1 10620:1 11032:1 11499:1 12304:1 12320:5 12904:1 13106:1 13552:1 13779:1 14022:1 14028:1 14099:1 14581:2 14982:1 15220:2 15448:1 15473:1 15481:1 15546:1 15946:1 16333:1 16352:1
4 4238:1 4990:1 7472:1 8426:1 10009:1
1 2532:1 2692:1 4336:1 4866:1 5992:1 5999:1 6750:1 10556:1 11684:1
1 156:1 635:1 695:1 797:1 865:1 1097:1 1117:3 2176:1 3561:1 4365:1 4548:1 4598:1 5571:1 6058:1 6322:1 7521:1 8515:2 8694:1 11324:1 11619:1 11687:1 14132:1
4 151:1 1097:1 1117:1 1253:1 2183:1 2571:1 3452:1 5097:1 8560:1 8645:1 11639:1 12932:1 13982:2 14367:1 15679:1
1 202:1 534:1 1117:1 1139:1 1727:1 4348:1 5010:1 6090:1 9309:1 12173:1 12769:1
2 998:1 1083:1 1409:1 3182:1 3518:1 3899:1 5097:1 5365:2 5467:1 6291:1 6965:1 9136:1 9249:1 9297:2 9314:1 10926:1 11221:1 11464:1 12173:1 15172:1 15625:1
4 534:2 3887:1 7620:1 11665:1 12873:1 13358:1 13965:1 13982:1 14674:1
2 1253:1 2440:1 4210:1 4251:1 5097:1 6694:1 7367:1 7465:1 7792:1 9106:1 9294:1 12191:1 13818:1 13982:1 15869:1 16144:1
4 144:1 1117:1 3756:1 4251:1 5097:1 5852:1 7101:1 9696:1 9789:1 9850:1 10330:1 12429:1 13688:1 13818:1 13982:1 14631:1 15420:1
2 204:1 1381:1 6705:1 7515:1 8613:1 9180:1 11047:1 14637:1
4 1553:1 2862:1 6090:1 7009:1 7983:1 8038:1 8359:1 8673:1 9023:1 9753:1 10876:1 11679:1 11833:1 12173:2 13196:1
1 164:1 185:1 3899:2 4982:2 6874:2 9462:2 9592:1 10921:1 10986:1 11484:2 11579:1
4 80:1 144:1 584:1 1117:3 1838:2 3749:1 4548:1 5275:1 6703:1 6909:1 7256:2 7823:1 7860:1 7975:1 8195:1 8952:1 8968:1 9109:1 9693:1 9925:1 9977:1 10057:1 10363:1 10471:1 10494:1 10668:1 10708:1 10768:1 11694:1 11938:1 12511:1 12880:1 13487:1 13507:1 13698:1 13941:1 14299:1 15076:1 15361:1 15521:1 15796:1
2 4587:1 5344:1 6190:1 12182:1
2 194:1 602:1 895:1 1097:1 1443:1 3264:1 4682:1 6992:1 7792:1 10175:1 10300:1 13090:1 13546:1 13982:1 14661:1 15775:1
4 74:1 735:1 1117:2 1253:1 5853:1 6637:1 6992:1 8109:1 9528:1 9715:1 10238:1 11347:1 12494:1 13275:1 13982:2 14921:1 16064:1
4 1253:1 3474:1 6208:1 8850:1 13001:1
1 70:1 194:1 685:1 983:2 1806:1 3791:1 3890:1 4077:1 4086:1 4409:1 4575:1 4968:1 5355:1 5415:1 6123:1 6503:1 7265:1 8235:1 8768:1 9106:1 9798:1 10633:1 10851:1 11324:2 12373:1 13173:1 13982:2 14044:1 14064:1 14250:1 14858:1
1 104:1 288:1 612:1 835:1 1180:1 1228:1 1381:1 1651:1 1817:1 1895:1 2105:1 2149:2 2233:1 2445:5 2449:1 2775:2 2814:1 2958:1 3014:1 3193:1 3208:2 3566:1 3661:4 3959:1 3968:1 4175:1 4326:1 4497:1 4627:1 5104:1 5279:2 5296:2 5330:1 5499:1 5537:1 5594:1 6130:1 6311:1 6443:1 7053:1 7880:1 7955:1 8326:4 8336:1 8747:4 9154:1 9314:1 9338:1 9651:1 10000:1 10420:1 10625:1 10693:2 11234:1 11534:1 11619:1 11892:1 12953:1 12965:1 13006:1 13212:1 13321:1 13597:1 13962:1 14244:1 14562:1 14572:1 14665:2 15058:1 15081:1 15597:1 15646:1 15970:1 16122:1
2 4417:1 8326:1 8401:1 10644:1 14637:1
4 385:1 518:1 3568:1 5240:1 5740:1 5900:1 5974:1 7567:1 8557:1 8788:1 9009:1 9336:1 11324:1 11330:2 12304:1 12615:1 13171:1 14030:1
2 635:1 1097:1 1253:1 3761:2 4476:1 4587:1 4661:1 6549:1 6808:1 7336:2 7530:1 9923:1 10207:1 10300:1 10363:1 10406:1 10671:1 12191:1 13004:1 14452:1 15605:1 16303:1
1 294:1 387:1 533:1 710:1 888:1 910:1 1128:1 1506:1 2482:1 2964:1 3455:2 3499:3 3835:1 4035:1 4216:1 4415:1 4421:2 4823:1 4850:1 5000:2 5220:1 5250:1 5449:1 5484:1 5879:1 5892:2 6222:1 6254:1 6509:2 7017:1 7098:2 7360:2 7449:1 8342:1 8713:1 9100:1 9696:1 10142:1 10336:1 10447:1 10802:2 10944:1 11084:1 11147:1 12102:2 12133:1 12192:1 12393:2 12560:1 13095:1 14015:1 14469:1 15150:1 15560:1 16080:1
2 635:1 893:1 964:1 983:1 1117:1 3007:1 3405:1 3899:1 5097:1 9180:1 10493:1 11430:1 15869:1
1 195:1 602:1 897:1 1336:1 1562:1 1630:1 1777:1 2080:1 2541:5 2946:1 3267:1 3322:1 3355:1 4987:1 5541:1 6058:1 6096:1 6750:1 6873:2 7289:1 8159:1 8233:2 8385:1 9378:1 10128:1 10363:2 10787:2 11404:1 11460:2 12309:1 13611:1 13925:1 14127:1 14209:1 14306:1 15058:2
2 205:1 534:1 3731:1 5329:1 16064:1
2 606:1 635:1 1551:1 2933:1 3054:1 3259:1 3929:1 4167:1 5010:1 5097:2 5405:1 7867:1 8233:1 8421:1 9622:1 9870:1 10865:1 11515:1 11567:1 12098:1 13004:1 13982:2 14605:1 14632:1 16169:1
1 302:1 528:1 820:1 1022:1 1097:2 1117:1 1626:1 1887:2 3089:1 3981:1 4440:1 4840:1 4917:1 5009:1 5095:1 6526:1 7065:1 7210:1 7620:1 7909:1 9527:1 10407:1 10680:1 10821:1 11595:1 12769:1 13269:1 13815:1 13982:3 14154:1 14232:1 14334:1 15019:1 15536:1 16173:1 16178:1
4 2482:1 5135:1 7659:1 7983:1 8333:1 8788:1 9232:1 11902:1 16080:1
4 635:1 1117:1 1316:1 1327:1 2197:1 2440:2 3050:1 3159:1 3904:1 3968:1 4160:1 4679:1 5163:1 5850:1 5933:2 6484:3 7766:1 8357:1 9247:1 9866:1 10175:1 10363:1 11821:1 11837:2 12059:1 12173:2 12191:1 13004:1 13131:1 13982:2 13995:2 14037:1 14632:1 14918:1 15362:1 15695:2
3 144:1 370:1 486:1 534:1 964:1 1388:1 2887:1 2943:1 3076:1 3273:1 3566:2 4685:1 5279:1 5605:1 5922:1 6484:1 7389:2 7505:2 7809:1 8589:1 8631:1 9362:1 9701:1 9731:1 9789:1 9918:1 10728:1 11796:1 12709:1 13982:4 14143:1 14840:1 15058:1 15134:1 15646:1 16184:1
4 15373:1
4 156:1 1253:1 2035:1 2394:1 3182:1 4029:1 4097:1 4637:1 5053:1 5097:1 5200:1 5487:1 6058:1 6444:1 6776:1 7313:1 7322:3 7447:1 7754:1 7906:1 8216:1 8594:1 8806:3 9482:1 10363:1 10953:1 11863:1 11976:1 12304:1 13187:1 13249:1 13412:1 13770:1 13984:1 14168:1 14293:1 14328:1 14928:1 15076:1 15172:1 15723:1 15744:1
4 517:1 797:1 1139:1 3545:1 3840:1 10300:1 10363:1 11181:1 13982:1
2 980:1 3282:1 7971:1 9217:1 9374:1 10733:1 13706:1 16165:1
4 437:1 486:1 566:1 856:1 1104:1 1309:1 2445:1 2821:1 3005:1 3149:1 3185:1 3265:2 3394:1 3768:1 4301:1 4365:1 4394:2 4896:4 4959:1 5359:2 5914:1 6057:2 6095:1 6557:1 6862:1 7174:2 7300:2 7644:1 7720:2 7905:1 8081:1 8185:1 9056:1 9406:1 10023:1 11550:1 11666:1 11869:1 12067:1 12111:1 12433:1 13238:1 14429:1 14488:1 14956:1 15305:1 15800:1 16042:1 16064:1
2 635:1 695:1 3147:1 5669:1 5720:1 5917:1 6050:1 6360:2 6699:1 8305:1 9507:1 9582:1 10088:1 10266:1 10471:1 10536:1 10718:1 12191:1 14583:2 14755:1 15869:1 16192:1 16264:1
2 115:1 762:1 793:1 797:1 1139:1 1236:1 1572:1 2449:1 2544:1 4182:1 4217:1 5097:2 5279:1 5319:1 5373:1 6090:1 6179:1 7429:1 7983:2 8237:1 8463:2 8569:1 8994:1 9094:1 9180:1 9249:1 9480:1 10016:1 10363:2 10471:3 10894:1 10971:1 11047:1 11454:1 11513:1 12137:1 13982:1 13995:1 14453:1 15129:1 15702:1 16098:2 16131:1
2 1243:1 2167:1 3756:1 4228:1 4414:1 4568:1 4632:1 4829:1 5279:1 6313:1 7484:1 10363:1 13398:1 14859:1 15058:1 16064:1
1 64:1 194:1 232:1 412:2 445:1 797:1 1016:1 1094:1 1455:1 1927:7 2197:1 2418:2 2439:1 4054:1 4908:1 5010:1 5035:1 6124:1 6307:1 6614:1 6991:1 7047:1 7342:1 7399:1 7732:1 8127:1 8223:1 8350:1 8399:2 8554:1 8679:1 9874:1 9969:1 10090:1 10131:1 10821:1 12058:1 12314:1 12418:1 12724:1 12880:1 13247:1 13398:1 13462:1 13633:1 13901:1 13946:1 13982:1 14528:1 14703:1 14793:1 14847:2 15798:1
4 14637:1 15373:1
1 2095:1 3599:1 6992:1 9296:1 10161:1 10175:1 11047:1 11484:1 13782:1 14661:1 15172:1
2 495:1 2346:1 4653:1 6954:1 7869:1 8413:1 9870:1 12239:1 12247:1 14859:1
4 534:1 635:1 1552:1 2445:1 3955:1 4954:1 5365:1 6058:1 7342:1 7971:1 9696:1 10646:1 10891:1 13782:1 13982:1 14462:1 16261:1
3 1253:2 2751:1 3150:1 4653:1 5083:1 5520:1 6330:1 7276:1 7320:1 7325:1 7726:1 7971:1 9106:1 9888:1 11692:1 12049:1 12240:1 12333:1 13763:1 13982:3
1 1355:1 1803:1 9582:1 9687:1 10505:1 10574:1 10822:1 12791:1 14306:1
1 4198:2 4969:1 5279:1 7253:1 9101:1 12173:1 16064:1
2 1097:2 1627:1 2381:1 2714:1 3182:1 5059:1 5251:1 5656:1 5691:1 5717:1 6461:1 7150:1 8057:1 9328:1 10915:1 11437:2 11734:1 12173:1 12968:1 13885:1 14704:1 15221:1 15648:1 15928:1
1 536:1 1036:1 1603:1 1843:1 2227:1 2675:1 3994:1 4326:1 5596:1 5978:1 6276:1 6443:4 8930:1 9077:1 9226:5 9326:1 9881:1 12988:1 13398:1 13666:1 13752:1 14526:1 15443:1
1 37:1 390:1 404:1 612:1 745:1 767:1 865:1 893:1 983:2 1971:1 2154:1 2670:2 2882:1 4246:1 4292:1 4662:1 4704:1 5097:1 5545:1 6509:1 6991:1 7751:1 8212:1 8612:1 9338:3 10019:1 10266:1 10891:1 11234:1 11619:1 12191:1 13559:1 13874:1 14055:1 14694:1 14913:1
1 695:1 797:1 1222:1 1497:2 2094:1 2418:1 2723:1 4277:2 5010:1 6785:1 7054:1 7106:1 7275:1 8333:1 8555:1 9080:1 9326:1 9512:1 9900:2 10102:1 10728:1 11701:1 12626:1 12788:1 12996:1 13517:1 13982:1 16042:1
4 584:1 998:1 1172:1 1253:1 1263:1 2105:1 2418:2 3202:1 3423:1 3931:1 4365:1 4507:1 4548:1 4716:1 5056:1 5097:1 5169:1 5853:1 6295:1 6320:1 7236:1 8865:1 9107:1 9401:1 10533:1 10551:1 14429:1 14519:1 14933:1 15036:1 16039:1
2 5262:1 6768:1 12702:1
2 430:1 779:1 905:1 2186:1 3266:1 4605:1 6443:1 7336:1 8922:1 9554:1 10748:1 11644:2 16184:1
1 4872:1 14755:1
4 68:1 1117:1 3038:1 4409:1 4970:1 5097:1 6232:1 6322:1 9089:1 10011:1 11556:1 11608:1 13965:1 14400:1 14762:1 15975:1
3 1098:1 1253:2 1365:1 3007:1 3465:4 5097:1 5563:1 5570:1 6410:1 8700:1 12023:1 13341:1 13982:1 15695:1
1 1097:2 1117:1 1930:1 2712:1 3375:1 5097:1 5222:1 5932:1 6934:1 7212:1 9164:1 9372:1 10552:1 11289:1 12345:1 12899:1 13247:1 14368:1 15009:1 15180:1
4 144:2 232:1 268:1 695:1 816:1 983:1 1117:4 1139:1 1364:1 1378:1 2782:1 2848:1 2912:1 3322:2 3423:1 4319:1 5059:1 5279:1 6005:1 6484:1 7006:1 7026:1 7673:1 8169:2 8195:1 10175:1 10633:1 10851:1 11170:1 12210:1 13782:1 13802:1 14661:1 15058:1 16088:1 16345:1
4 892:1 1117:1 1613:1 2571:1 5097:1 6842:1 8624:1 9810:1 12191:1 13292:1 14632:1
2 144:4 191:1 224:1 635:1 1117:4 1253:1 2671:1 2698:1 2880:2 3247:1 3692:1 4188:1 4202:1 4305:1 5097:1 5268:1 5897:1 6540:1 6943:1 7150:1 7945:1 7996:1 8066:1 9239:1 9250:1 9334:1 9375:1 9592:2 9874:1 10074:1 10414:1 10471:1 11521:1 12223:1 12454:3 12769:1 13695:1 13844:1 14386:1 14831:1 15172:1 15256:1 15435:1 15516:1 15574:1 15856:1
2 627:1 3899:1 8326:1 9374:1 10728:1 14927:1
2 2:1 277:1 1117:1 1236:2 4154:1 4210:1 6824:1 9616:1 10264:1 11696:1 13882:1
1 532:1 622:1 797:1 862:1 983:1 1162:1 1632:1 2672:1 3518:1 3728:1 3827:1 4180:1 4802:1 4998:1 7775:1 8019:1 8555:1 9203:1 9885:1 9924:1 9984:1 10016:1 10208:1 10684:1 10872:1 11014:1 11248:1 11896:1 12786:1 13982:1 14693:1 14705:1 15808:1
3 2986:1 5833:1 7200:1 7527:1 12960:1 13027:1
4 151:1 1097:1 1117:1 1253:1 2183:1 2571:1 3452:1 5097:1 8560:1 8645:1 11639:1 12932:1 13982:2 14367:1 15679:1
4 109:1 366:1 1017:1 1139:1 1253:1 1421:1 2105:1 2482:1 3729:1 4035:1 8420:1 9872:1 10088:1 16080:1
1 237:1 558:2 1047:2 1184:1 1532:1 2057:1 2465:2 2974:2 3394:1 3585:1 3887:1 4221:1 5279:2 6443:1 7523:1 7754:2 7864:2 8053:1 8346:1 8447:1 8692:1 8879:1 9683:1 9787:1 9817:1 9867:1 10476:1 11307:1 11913:1 12155:2 13792:1 13988:1 14061:2 14378:1 14430:1 14678:1 15843:1
4 3297:1 5929:1 6873:1 7898:1 7971:1 10175:1 11296:1 12665:1 13958:1 14661:1 15741:1
1 482:1 703:1 838:1 1014:1 1253:1 1374:1 1673:1 1807:1 2114:1 2843:1 3199:1 4058:1 4365:1 4770:1 4871:1 5156:1 5867:1 7124:1 8314:1 8648:1 8806:2 8939:1 9902:1 9919:1 9973:1 10330:1 10947:1 13252:1 13371:1 13435:1 13818:1 14974:1
4 257:1 1097:1 2751:1 7900:1 8621:1 13982:1
4 2177:1 6249:1 8011:1
2 1253:1 2867:1 5010:1 7484:1 8326:1 11176:1
4 22:1 675:2 942:1 1097:1 1255:1 1490:1 1838:1 2127:2 2197:1 3007:1 3297:1 3417:1 3599:1 3647:1 4006:1 4007:1 4147:1 4213:4 4463:1 4653:1 5283:1 5452:1 5540:1 5749:1 6119:1 6225:1 6561:2 6694:1 7276:2 7703:1 8195:1 9746:1 9888:2 10131:1 10175:1 10780:1 10834:1 11233:2 11751:1 12090:1 12936:1 13157:1 13295:3 13747:1 13782:1 14111:1 14182:1 14501:2 14583:1 14696:1 15755:1 15783:1 16291:1
2 104:1 205:1 459:1 797:1 870:1 1117:5 1478:1 1625:1 2176:1 2440:1 3050:1 3259:1 4295:1 4931:1 5017:1 5055:1 5319:1 5933:1 6090:1 6200:1 6479:1 7243:1 7582:1 7659:1 7994:1 8018:1 8596:2 8627:1 10011:1 10062:1 10821:1 12715:1 12742:1 13229:2 14859:1 15076:1 15349:1 15522:1
4 144:1 684:1 983:1 1117:1 1150:2 1625:2 1855:1 1874:1 2173:1 2723:1 2727:1 3381:1 3543:1 3912:1 4374:1 4659:1 4958:1 5081:1 5097:1 5326:1 5747:1 6360:1 6817:1 7871:1 7919:2 7946:1 8195:1 8651:1 8653:1 9015:2 9235:1 9827:1 9874:1 10160:1 10998:1 11047:1 11204:1 11463:1 11653:1 13122:1 13438:1 13982:2 14098:1 14237:1 15845:1 16122:1
4 144:1 1117:1 6694:1 7566:1 12282:1
2 1909:1 3057:1 3114:1 4348:1 5097:1 5279:1 7132:1 8369:1 9106:1 9855:1 13782:1 13982:1 14291:1 15268:1 15723:1 15782:1
4 643:1 1117:2 1253:1 1838:2 2166:1 2392:1 2440:1 2445:1 2771:1 3083:1 3105:1 3583:1 3639:1 3732:1 3904:1 4251:1 4754:1 4953:1 5060:1 5279:2 5594:1 5678:1 6091:1 6240:1 6694:1 6846:1 6918:1 7527:1 7630:1 7687:1 7972:1 8116:2 8612:1 9255:1 9313:1 9484:1 9827:2 10363:1 11018:1 11534:1 11659:1 11902:3 12040:1 12061:1 12424:1 12455:1 12539:1 12973:1 13982:3 15019:1 15710:1 15772:1 15838:1
2 144:1 397:1 640:1 11397:1 12580:1 13694:1 13892:1 13982:1
4 144:1 1117:1 3756:1 4251:1 5097:1 5852:1 7101:1 9696:1 9789:1 9850:1 10330:1 12429:1 13688:1 13818:1 13982:1 14631:1 15420:1
1 202:3 1098:1 1105:2 6879:1 8884:1 10250:1 10450:1 12835:1 14619:1 15479:1
1 20:5 71:1 911:1 1097:1 1818:1 1930:1 2209:1 2455:1 3091:1 3587:1 3660:1 3791:2 3904:1 4020:1 4231:1 4444:1 4857:1 4915:1 5049:1 5055:1 5279:1 5413:1 5445:1 5629:5 5781:2 5875:1 6443:2 6647:1 7634:1 7659:1 7927:1 8256:1 9418:1 9880:1 9984:1 10017:1 10518:1 10521:2 11631:1 11885:1 12667:1 13982:2 15012:1 15498:1 15639:1 16225:1
4 283:1 290:1 983:1 1008:1 1253:1 1584:1 2445:1 2571:1 2905:1 3133:1 3324:1 4013:1 4135:1 4371:1 5097:1 6360:1 9455:1 9582:1 9696:1 10088:1 10175:2 10536:1 10780:1 11324:1 11660:1 12191:1 13131:1 13263:1 13314:1 13570:1 14223:1 14250:1 15869:1
4 12:1 856:1 1253:1 1570:1 1743:1 2571:1 5394:1 6000:1 6613:1 7155:1 7983:1 8195:1 9855:1 12191:2 13398:1 15076:1
1 983:1 3265:1 3416:1 3545:1 4597:1 5060:1 6643:1 6825:1 7216:1 7687:1 8249:1 8388:1 8698:1 8765:1 9492:1 10420:1 15315:2 15644:1
4 1634:1 2482:1 3391:1 4152:1 5911:3 6502:1 7515:1 7864:1 8333:1 9106:1 10821:1 11218:1 12719:1 12944:1 15745:4 15840:1 16080:1
4 144:1 820:1 1097:2 1316:1 1858:1 2848:1 3021:1 3420:1 3455:1 3599:1 3997:1 4798:1 4928:1 5473:1 6536:1 6898:1 7249:2 7566:1 7615:1 7945:1 7994:1 8154:1 8228:1 8418:1 10011:1 11530:1 11767:1 13382:1 13982:2 15039:1 15127:1
1 104:1 109:1 635:1 2143:1 2365:1 3416:1 5279:1 5974:1 6249:1 6400:1 9374:1 10416:1 11324:2 12191:1 13247:1 14250:2 14319:1 14583:1 15222:1 15869:1
2 464:1 508:1 1117:1 1707:1 2880:1 3156:1 3792:1 4164:1 5649:1 6151:1 6179:1 7086:1 7101:1 7940:1 8456:1 11049:1 11313:1 13184:1 13508:1 13624:1 13818:1 13935:1 14094:1
4 755:1 797:1 1401:1 1419:1 2428:1 3775:1 5249:1 5999:1 6064:1 13651:1 15786:1
4 693:1 968:1 1041:1 2105:1 5698:1 6908:1 7158:1 7505:1 8462:1 10574:1 12087:1 12293:1 12405:1 13910:1 14306:1 14629:1 16121:1
